 [
  {
  "name": "LAVFilters",
  "64-bits": false,
  "url": "https://github.com/Nevcairiel/LAVFilters/releases/download/0.70.2/LAVFilters-0.70.2-Installer.exe",
  "installer-flags": "/VERYSILENT /SUPPRESSMSGBOXES /NORESTART /SP-",
  "installed-needed-file": "%ProgramFiles%/LAV Filters/unins000.exe",
  "installed-needed-file-is-executable": false,
  "installed-needed-file-flags":
  [
  ],
  "ignore-installers-and-extras": false,
  "winetricks":
  [
  ],
  "registries":
  {
  }
  },
  {
  "name": "Big Fish Games",
  "64-bits": false,
  "installed-needed-file": "%ProgramFiles%/bfgclient/bfgclient.exe",
  "installed-needed-file-is-executable": true,
  "installed-needed-file-flags":
  [
  ],
  "ignore-installers-and-extras": false,
  "winetricks":
  [
   "msxml3",
   "vcrun2010",
   "ie7"
   ],
  "registries":
  {
  }
  },
  {
  "name": "Origin",
  "64-bits": false,
  "url": "http://www.filesetups.com/windows/desktop/origin-9.12.0/download",
  "installer-flags": "/S",
  "installer-launched-application-size":
  {
  "width": 376,
  "height": 520
  },
  "installed-needed-file": "%ProgramFiles%/Origin/Origin.exe",
  "installed-needed-file-is-executable": true,
  "installed-needed-file-flags":
  [
  ],
  "ignore-installers-and-extras": false,
  "winetricks":
  [
   "msxml3",
   "vcrun2013",
   "vb6run",
   "nocrashdialog",
   "vcrun2010",
   "macdriver=mac"
   ],
  "registries":
  {
  "user":
  {
  "[Software\\\\Wine\\\\AppDefaults\\\\Origin.exe]":
  {
  "Version": "\"win7\""
  }
  },
  "system":
  {
  "[Software\\\\Origin]":
  {
  "AutopatchGlobal": "\"false\"",
  "Autoupdate": "\"false\"",
  "TelemOO": "\"false\""
  }
  }
  }
  },
  {
  "name": "Uplay",
  "64-bits": false,
  "url": "http://www.mediafire.com/file/4fojiio8tp93f9d/UplayInstaller.exe",
  "installer-flags": "/S /NCRC",
  "installed-needed-file": "%ProgramFiles%/Ubisoft/Ubisoft Game Launcher/Uplay.exe",
  "installed-needed-file-is-executable": true,
  "installed-needed-file-flags":
  [
  ],
  "ignore-installers-and-extras": false,
  "winetricks":
  [
   "msxml3",
   "vcrun2010",
   "winhttp",
   "win7"
   ],
  "registries":
  {
  "user":
  {
  "[Software\\\\Wine\\\\AppDefaults\\\\Uplay.exe]":
  {
  "Version": "\"winxp\""
  }
  }
  }
  },
  {
  "name": "Steam",
  "64-bits": false,
  "url": "http://media.steampowered.com/client/installer/SteamSetup.exe",
  "installer-flags": "/S",
  "installer-launched-application-size":
  {
  "width": 394,
  "height": 126
  },
  "installed-needed-file": "%ProgramFiles%/Steam/steam.exe",
  "installed-needed-file-is-executable": true,
  "installed-needed-file-flags":
  [
   "-no-cef-sandbox"
   ],
  "ignore-installers-and-extras": false,
  "winetricks":
  [
   "nocrashdialog"
   ],
  "registries":
  {
  "user":
  {
  "[Software\\\\Valve\\\\Steam]":
  {
  "DWriteEnable": "dword:00000000"
  }
  }
  }
  },
  {
  "name": "GOG Galaxy",
  "64-bits": false,
  "url": "http://portingkit.com/api/goggalaxy-url.php",
  "installer-flags": "/VERYSILENT /NORESTART",
  "installed-needed-file": "%ProgramFiles%/GOG Galaxy/GalaxyClient.exe",
  "installed-needed-file-is-executable": true,
  "installed-needed-file-flags":
  [
  ],
  "ignore-installers-and-extras": true,
  "winetricks":
  [
   "win7",
   "vcrun2015"
   ],
  "registries":
  {
  }
  }
  ]
